{
  "files": {
    "static/js/0.dee97103.chunk.js": "/static/js/0.dee97103.chunk.js",
    "static/js/0.dee97103.chunk.js.map": "/static/js/0.dee97103.chunk.js.map",
    "static/js/1.b995e558.chunk.js": "/static/js/1.b995e558.chunk.js",
    "static/js/1.b995e558.chunk.js.map": "/static/js/1.b995e558.chunk.js.map",
    "static/css/2.08424aa4.chunk.css": "/static/css/2.08424aa4.chunk.css",
    "static/js/2.c264383b.chunk.js": "/static/js/2.c264383b.chunk.js",
    "static/js/2.c264383b.chunk.js.map": "/static/js/2.c264383b.chunk.js.map",
    "main.css": "/static/css/main.2f3c39eb.chunk.css",
    "main.js": "/static/js/main.9073f778.chunk.js",
    "main.js.map": "/static/js/main.9073f778.chunk.js.map",
    "runtime-main.js": "/static/js/runtime-main.180f3d56.js",
    "runtime-main.js.map": "/static/js/runtime-main.180f3d56.js.map",
    "static/js/5.3a7138c3.chunk.js": "/static/js/5.3a7138c3.chunk.js",
    "static/js/5.3a7138c3.chunk.js.map": "/static/js/5.3a7138c3.chunk.js.map",
    "static/css/6.a3f42878.chunk.css": "/static/css/6.a3f42878.chunk.css",
    "static/js/6.df5ef0a2.chunk.js": "/static/js/6.df5ef0a2.chunk.js",
    "static/js/6.df5ef0a2.chunk.js.map": "/static/js/6.df5ef0a2.chunk.js.map",
    "static/css/7.45d1548d.chunk.css": "/static/css/7.45d1548d.chunk.css",
    "static/js/7.5c913b0d.chunk.js": "/static/js/7.5c913b0d.chunk.js",
    "static/js/7.5c913b0d.chunk.js.map": "/static/js/7.5c913b0d.chunk.js.map",
    "static/js/8.ddf14bb4.chunk.js": "/static/js/8.ddf14bb4.chunk.js",
    "static/js/8.ddf14bb4.chunk.js.map": "/static/js/8.ddf14bb4.chunk.js.map",
    "static/js/9.940fd332.chunk.js": "/static/js/9.940fd332.chunk.js",
    "static/js/9.940fd332.chunk.js.map": "/static/js/9.940fd332.chunk.js.map",
    "static/css/10.3e9c329f.chunk.css": "/static/css/10.3e9c329f.chunk.css",
    "static/js/10.cec8543c.chunk.js": "/static/js/10.cec8543c.chunk.js",
    "static/js/10.cec8543c.chunk.js.map": "/static/js/10.cec8543c.chunk.js.map",
    "static/js/11.15679dc6.chunk.js": "/static/js/11.15679dc6.chunk.js",
    "static/js/11.15679dc6.chunk.js.map": "/static/js/11.15679dc6.chunk.js.map",
    "static/js/12.42fe1f60.chunk.js": "/static/js/12.42fe1f60.chunk.js",
    "static/js/12.42fe1f60.chunk.js.map": "/static/js/12.42fe1f60.chunk.js.map",
    "static/js/13.9be28d6c.chunk.js": "/static/js/13.9be28d6c.chunk.js",
    "static/js/13.9be28d6c.chunk.js.map": "/static/js/13.9be28d6c.chunk.js.map",
    "static/js/14.49747c48.chunk.js": "/static/js/14.49747c48.chunk.js",
    "static/js/14.49747c48.chunk.js.map": "/static/js/14.49747c48.chunk.js.map",
    "static/css/15.ff951960.chunk.css": "/static/css/15.ff951960.chunk.css",
    "static/js/15.0df1d961.chunk.js": "/static/js/15.0df1d961.chunk.js",
    "static/js/15.0df1d961.chunk.js.map": "/static/js/15.0df1d961.chunk.js.map",
    "static/css/16.45d1548d.chunk.css": "/static/css/16.45d1548d.chunk.css",
    "static/js/16.313df8a6.chunk.js": "/static/js/16.313df8a6.chunk.js",
    "static/js/16.313df8a6.chunk.js.map": "/static/js/16.313df8a6.chunk.js.map",
    "static/js/17.59aff0f5.chunk.js": "/static/js/17.59aff0f5.chunk.js",
    "static/js/17.59aff0f5.chunk.js.map": "/static/js/17.59aff0f5.chunk.js.map",
    "static/js/18.193fe444.chunk.js": "/static/js/18.193fe444.chunk.js",
    "static/js/18.193fe444.chunk.js.map": "/static/js/18.193fe444.chunk.js.map",
    "static/js/19.bda494b9.chunk.js": "/static/js/19.bda494b9.chunk.js",
    "static/js/19.bda494b9.chunk.js.map": "/static/js/19.bda494b9.chunk.js.map",
    "static/js/20.01a44665.chunk.js": "/static/js/20.01a44665.chunk.js",
    "static/js/20.01a44665.chunk.js.map": "/static/js/20.01a44665.chunk.js.map",
    "static/js/21.c8fb3d52.chunk.js": "/static/js/21.c8fb3d52.chunk.js",
    "static/js/21.c8fb3d52.chunk.js.map": "/static/js/21.c8fb3d52.chunk.js.map",
    "static/js/22.0c07af3c.chunk.js": "/static/js/22.0c07af3c.chunk.js",
    "static/js/22.0c07af3c.chunk.js.map": "/static/js/22.0c07af3c.chunk.js.map",
    "static/css/23.d0bb6407.chunk.css": "/static/css/23.d0bb6407.chunk.css",
    "static/js/23.35b4de7a.chunk.js": "/static/js/23.35b4de7a.chunk.js",
    "static/js/23.35b4de7a.chunk.js.map": "/static/js/23.35b4de7a.chunk.js.map",
    "static/js/24.b16f5a7b.chunk.js": "/static/js/24.b16f5a7b.chunk.js",
    "static/js/24.b16f5a7b.chunk.js.map": "/static/js/24.b16f5a7b.chunk.js.map",
    "static/js/25.4b431939.chunk.js": "/static/js/25.4b431939.chunk.js",
    "static/js/25.4b431939.chunk.js.map": "/static/js/25.4b431939.chunk.js.map",
    "static/js/26.991a4ae1.chunk.js": "/static/js/26.991a4ae1.chunk.js",
    "static/js/26.991a4ae1.chunk.js.map": "/static/js/26.991a4ae1.chunk.js.map",
    "index.html": "/index.html",
    "service-worker.js": "/service-worker.js",
    "service-worker.js.map": "/service-worker.js.map",
    "static/css/10.3e9c329f.chunk.css.map": "/static/css/10.3e9c329f.chunk.css.map",
    "static/css/15.ff951960.chunk.css.map": "/static/css/15.ff951960.chunk.css.map",
    "static/css/16.45d1548d.chunk.css.map": "/static/css/16.45d1548d.chunk.css.map",
    "static/css/2.08424aa4.chunk.css.map": "/static/css/2.08424aa4.chunk.css.map",
    "static/css/23.d0bb6407.chunk.css.map": "/static/css/23.d0bb6407.chunk.css.map",
    "static/css/6.a3f42878.chunk.css.map": "/static/css/6.a3f42878.chunk.css.map",
    "static/css/7.45d1548d.chunk.css.map": "/static/css/7.45d1548d.chunk.css.map",
    "static/css/main.2f3c39eb.chunk.css.map": "/static/css/main.2f3c39eb.chunk.css.map",
    "static/js/5.3a7138c3.chunk.js.LICENSE.txt": "/static/js/5.3a7138c3.chunk.js.LICENSE.txt",
    "static/media/stylesheet.css": "/static/media/SFProDisplay-Regular.ea1b407b.eot",
    "static/media/bootstrap-icons.css": "/static/media/bootstrap-icons.dfd0ea12.woff2",
    "static/media/getFetch.cjs": "/static/media/getFetch.582d29c4.cjs"
  },
  "entrypoints": [
    "static/js/runtime-main.180f3d56.js",
    "static/js/5.3a7138c3.chunk.js",
    "static/css/main.2f3c39eb.chunk.css",
    "static/js/main.9073f778.chunk.js"
  ]
}